Introduction
…
models <- qpAdm_rotation(
    data = snps,
    target = "French",
    candidates = c("Dinka", "Mbuti", "Yoruba", "Vindija", "Altai", "Denisova", "Chimp"),
    minimize = TRUE,
    nsources = 2,
    ncores = 2,
    fulloutput = TRUE
)

Here is what the full output looks like:

models
#> $proportions
#> # A tibble: 336 x 13
#>    model target source1 source2 outgroups noutgroups  pvalue    prop1   prop2
#>    <chr> <chr>  <chr>   <chr>   <chr>          <int>   <dbl>    <dbl>   <dbl>
#>  1 m1    French Dinka   Mbuti   Yoruba &…          3 3.37e-2    0.757   0.243
#>  2 m2    French Dinka   Mbuti   Yoruba &…          3 1.38e-2    0.774   0.226
#>  3 m3    French Dinka   Mbuti   Yoruba &…          3 1.14e-6    0.89    0.11 
#>  4 m4    French Dinka   Mbuti   Yoruba &…          3 6.85e-2    0.781   0.219
#>  5 m5    French Dinka   Mbuti   Yoruba &…          3 1.49e-5    0.885   0.115
#>  6 m6    French Dinka   Mbuti   Yoruba &…          3 9.32e-3    0.887   0.113
#>  7 m7    French Dinka   Mbuti   Vindija …          3 6.70e-2   -8.51    9.51 
#>  8 m8    French Dinka   Mbuti   Vindija …          3 2.71e-1   25.3   -24.3  
#>  9 m9    French Dinka   Mbuti   Vindija …          3 1.61e-1 -187.    188.   
#> 10 m10   French Dinka   Mbuti   Altai & …          3 8.10e-2  -30.7    31.7  
#> # … with 326 more rows, and 4 more variables: stderr1 <dbl>, stderr2 <dbl>,
#> #   nsnps_used <dbl>, nsnps_target <dbl>
#> 
#> $ranks
#> # A tibble: 672 x 9
#>    model target  rank    df chisq       tail dfdiff chisqdiff   taildiff
#>    <chr> <chr>  <dbl> <dbl> <dbl>      <dbl>  <dbl>     <dbl>      <dbl>
#>  1 m1    French     1     1  4.51 0.0337          3     -4.51 1         
#>  2 m1    French     2     0  0    1               1      4.51 0.0337    
#>  3 m10   French     1     1  6.06 0.0138          3     -6.06 1         
#>  4 m10   French     2     0  0    1               1      6.06 0.0138    
#>  5 m100  French     1     1 23.7  0.00000114      3    -23.7  1         
#>  6 m100  French     2     0  0    1               1     23.7  0.00000114
#>  7 m101  French     1     1  3.32 0.0685          3     -3.32 1         
#>  8 m101  French     2     0  0    1               1      3.32 0.0685    
#>  9 m102  French     1     1 18.8  0.0000149       3    -18.8  1         
#> 10 m102  French     2     0  0    1               1     18.8  0.0000149 
#> # … with 662 more rows
#> 
#> $subsets
#> # A tibble: 1,008 x 12
#>    model target source1 source2 pattern    wt   dof  chisq    tail prop1 prop2
#>    <chr> <chr>  <chr>   <chr>   <chr>   <dbl> <dbl>  <dbl>   <dbl> <dbl> <dbl>
#>  1 m1    French Dinka   Mbuti   00          0     1   4.51 3.37e-2 0.757 0.243
#>  2 m1    French Dinka   Mbuti   01          1     2  23.6  7.35e-6 1     0    
#>  3 m1    French Dinka   Mbuti   10          1     2 160.   0.      0     1    
#>  4 m10   French Dinka   Mbuti   00          0     1   6.06 1.38e-2 0.774 0.226
#>  5 m10   French Dinka   Mbuti   01          1     2  23.3  8.91e-6 1     0    
#>  6 m10   French Dinka   Mbuti   10          1     2 162.   0.      0     1    
#>  7 m100  French Dinka   Mbuti   00          0     1  23.7  1.14e-6 0.89  0.11 
#>  8 m100  French Dinka   Mbuti   01          1     2  28.8  5.66e-7 1     0    
#>  9 m100  French Dinka   Mbuti   10          1     2 285.   0.      0     1    
#> 10 m101  French Dinka   Mbuti   00          0     1   3.32 6.85e-2 0.781 0.219
#> # … with 998 more rows, and 1 more variable: comment <chr>
…
